{
  "project_info": {
    "project_number": "950206475204",
    "firebase_url": "https://levanbujiashvilishualeduri1.firebaseio.com",
    "project_id": "levanbujiashvilishualeduri1",
    "storage_bucket": "levanbujiashvilishualeduri1.appspot.com"
  },
  "client": [
    {
      "client_info": {
        "mobilesdk_app_id": "1:950206475204:android:49854e026dccfd858cd291",
        "android_client_info": {
          "package_name": "com.example.levan_bujiashvili_shualeduri1"
        }
      },
      "oauth_client": [
        {
          "client_id": "950206475204-doao7l96sr1mckjp0otrei91jqvedkk6.apps.googleusercontent.com",
          "client_type": 1,
          "android_info": {
            "package_name": "com.example.levan_bujiashvili_shualeduri1",
            "certificate_hash": "b3e219990072199a9ee47f4489e6eec3855f5e2b"
          }
        },
        {
          "client_id": "950206475204-i98gsvt1ribpd6v9acu1gjn6ja6soh00.apps.googleusercontent.com",
          "client_type": 3
        }
      ],
      "api_key": [
        {
          "current_key": "AIzaSyDDnoNrUqN1MKFQGhTLjsKJuZSzJ3_biXw"
        }
      ],
      "services": {
        "appinvite_service": {
          "other_platform_oauth_client": [
            {
              "client_id": "950206475204-i98gsvt1ribpd6v9acu1gjn6ja6soh00.apps.googleusercontent.com",
              "client_type": 3
            }
          ]
        }
      }
    }
  ],
  "configuration_version": "1"
}